{
    "cup_1": [
        "support_1", 
        "movability_2", 
        "weight_2", 
        "size_3", 
        "roughness_2", 
        "hollowness_1", 
        "containment_0", 
        "flatness_1", 
        "rigidity_2", 
        "blockage_3"
    ], 
    "ball_9": [
        "support_1", 
        "movability_0", 
        "weight_0", 
        "size_1", 
        "roughness_3", 
        "hollowness_0", 
        "containment_2", 
        "flatness_1", 
        "rigidity_1", 
        "blockage_1"
    ], 
    "ball_8": [
        "support_1", 
        "movability_0", 
        "weight_0", 
        "size_1", 
        "roughness_3", 
        "hollowness_0", 
        "containment_2", 
        "flatness_1", 
        "rigidity_1", 
        "blockage_1"
    ], 
    "metal_box_10": [
        "support_0", 
        "movability_0", 
        "weight_0", 
        "size_0", 
        "roughness_2", 
        "hollowness_0", 
        "containment_1", 
        "flatness_0", 
        "rigidity_1", 
        "blockage_1"
    ], 
    "cup_8": [
        "support_1", 
        "movability_2", 
        "weight_2", 
        "size_3", 
        "roughness_0", 
        "hollowness_2", 
        "containment_0", 
        "flatness_1", 
        "rigidity_2", 
        "blockage_3"
    ], 
    "cup_9": [
        "support_1", 
        "movability_2", 
        "weight_2", 
        "size_1", 
        "roughness_2", 
        "hollowness_1", 
        "containment_0", 
        "flatness_1", 
        "rigidity_2", 
        "blockage_3"
    ], 
    "cup_4": [
        "support_1", 
        "movability_0", 
        "weight_0", 
        "size_3", 
        "roughness_0", 
        "hollowness_0", 
        "containment_2", 
        "flatness_1", 
        "rigidity_2", 
        "blockage_1"
    ], 
    "cup_5": [
        "support_1", 
        "movability_2", 
        "weight_2", 
        "size_1", 
        "roughness_0", 
        "hollowness_2", 
        "containment_0", 
        "flatness_1", 
        "rigidity_2", 
        "blockage_3"
    ], 
    "cup_6": [
        "support_1", 
        "movability_2", 
        "weight_2", 
        "size_1", 
        "roughness_0", 
        "hollowness_1", 
        "containment_0", 
        "flatness_1", 
        "rigidity_2", 
        "blockage_3"
    ], 
    "ball_3": [
        "support_1", 
        "movability_0", 
        "weight_0", 
        "size_1", 
        "roughness_3", 
        "hollowness_0", 
        "containment_2", 
        "flatness_1", 
        "rigidity_0", 
        "blockage_1"
    ], 
    "ball_4": [
        "support_1", 
        "movability_0", 
        "weight_0", 
        "size_1", 
        "roughness_3", 
        "hollowness_0", 
        "containment_2", 
        "flatness_1", 
        "rigidity_0", 
        "blockage_1"
    ], 
    "ball_5": [
        "support_1", 
        "movability_0", 
        "weight_0", 
        "size_1", 
        "roughness_3", 
        "hollowness_0", 
        "containment_2", 
        "flatness_1", 
        "rigidity_1", 
        "blockage_1"
    ], 
    "cup_2": [
        "support_1", 
        "movability_2", 
        "weight_2", 
        "size_1", 
        "roughness_2", 
        "hollowness_2", 
        "containment_0", 
        "flatness_1", 
        "rigidity_2", 
        "blockage_3"
    ], 
    "ball_7": [
        "support_1", 
        "movability_0", 
        "weight_0", 
        "size_1", 
        "roughness_3", 
        "hollowness_0", 
        "containment_2", 
        "flatness_1", 
        "rigidity_2", 
        "blockage_1"
    ], 
    "to_go_cup_3": [
        "support_1", 
        "movability_0", 
        "weight_0", 
        "size_1", 
        "roughness_2", 
        "hollowness_2", 
        "containment_0", 
        "flatness_1", 
        "rigidity_2", 
        "blockage_1"
    ], 
    "to_go_cup_2": [
        "support_1", 
        "movability_0", 
        "weight_0", 
        "size_1", 
        "roughness_2", 
        "hollowness_1", 
        "containment_0", 
        "flatness_1", 
        "rigidity_2", 
        "blockage_1"
    ], 
    "to_go_cup_1": [
        "support_1", 
        "movability_0", 
        "weight_0", 
        "size_3", 
        "roughness_2", 
        "hollowness_1", 
        "containment_0", 
        "flatness_1", 
        "rigidity_2", 
        "blockage_1"
    ], 
    "to_go_cup_7": [
        "support_1", 
        "movability_0", 
        "weight_0", 
        "size_1", 
        "roughness_0", 
        "hollowness_2", 
        "containment_0", 
        "flatness_1", 
        "rigidity_2", 
        "blockage_1"
    ], 
    "to_go_cup_6": [
        "support_1", 
        "movability_0", 
        "weight_0", 
        "size_1", 
        "roughness_0", 
        "hollowness_1", 
        "containment_0", 
        "flatness_1", 
        "rigidity_2", 
        "blockage_1"
    ], 
    "to_go_cup_5": [
        "support_1", 
        "movability_0", 
        "weight_0", 
        "size_1", 
        "roughness_2", 
        "hollowness_2", 
        "containment_0", 
        "flatness_1", 
        "rigidity_2", 
        "blockage_1"
    ], 
    "to_go_cup_4": [
        "support_1", 
        "movability_0", 
        "weight_0", 
        "size_3", 
        "roughness_0", 
        "hollowness_0", 
        "containment_2", 
        "flatness_1", 
        "rigidity_2", 
        "blockage_1"
    ], 
    "to_go_cup_9": [
        "support_1", 
        "movability_0", 
        "weight_0", 
        "size_3", 
        "roughness_2", 
        "hollowness_2", 
        "containment_0", 
        "flatness_1", 
        "rigidity_2", 
        "blockage_1"
    ], 
    "to_go_cup_8": [
        "support_1", 
        "movability_0", 
        "weight_0", 
        "size_3", 
        "roughness_2", 
        "hollowness_2", 
        "containment_0", 
        "flatness_1", 
        "rigidity_2", 
        "blockage_1"
    ], 
    "plastic_box_10": [
        "support_3", 
        "movability_0", 
        "weight_0", 
        "size_0", 
        "roughness_2", 
        "hollowness_0", 
        "containment_1", 
        "flatness_0", 
        "rigidity_0", 
        "blockage_1"
    ], 
    "ball_2": [
        "support_1", 
        "movability_0", 
        "weight_0", 
        "size_1", 
        "roughness_3", 
        "hollowness_0", 
        "containment_2", 
        "flatness_1", 
        "rigidity_1", 
        "blockage_1"
    ], 
    "cup_7": [
        "support_1", 
        "movability_2", 
        "weight_2", 
        "size_1", 
        "roughness_0", 
        "hollowness_2", 
        "containment_0", 
        "flatness_1", 
        "rigidity_2", 
        "blockage_3"
    ], 
    "paper_box_8": [
        "support_3", 
        "movability_0", 
        "weight_0", 
        "size_2", 
        "roughness_3", 
        "hollowness_0", 
        "containment_1", 
        "flatness_0", 
        "rigidity_1", 
        "blockage_1"
    ], 
    "paper_box_9": [
        "support_1", 
        "movability_1", 
        "weight_1", 
        "size_3", 
        "roughness_0", 
        "hollowness_0", 
        "containment_2", 
        "flatness_1", 
        "rigidity_2", 
        "blockage_2"
    ], 
    "paper_box_6": [
        "support_3", 
        "movability_0", 
        "weight_0", 
        "size_2", 
        "roughness_0", 
        "hollowness_0", 
        "containment_1", 
        "flatness_0", 
        "rigidity_1", 
        "blockage_1"
    ], 
    "paper_box_7": [
        "support_3", 
        "movability_0", 
        "weight_0", 
        "size_2", 
        "roughness_2", 
        "hollowness_0", 
        "containment_1", 
        "flatness_2", 
        "rigidity_0", 
        "blockage_1"
    ], 
    "paper_box_4": [
        "support_3", 
        "movability_0", 
        "weight_0", 
        "size_2", 
        "roughness_2", 
        "hollowness_0", 
        "containment_1", 
        "flatness_2", 
        "rigidity_1", 
        "blockage_1"
    ], 
    "paper_box_5": [
        "support_0", 
        "movability_0", 
        "weight_0", 
        "size_2", 
        "roughness_0", 
        "hollowness_0", 
        "containment_2", 
        "flatness_3", 
        "rigidity_1", 
        "blockage_1"
    ], 
    "paper_box_2": [
        "support_1", 
        "movability_0", 
        "weight_0", 
        "size_3", 
        "roughness_0", 
        "hollowness_0", 
        "containment_2", 
        "flatness_1", 
        "rigidity_2", 
        "blockage_1"
    ], 
    "paper_box_3": [
        "support_3", 
        "movability_0", 
        "weight_0", 
        "size_2", 
        "roughness_2", 
        "hollowness_0", 
        "containment_1", 
        "flatness_0", 
        "rigidity_1", 
        "blockage_1"
    ], 
    "paper_box_1": [
        "support_3", 
        "movability_0", 
        "weight_0", 
        "size_0", 
        "roughness_2", 
        "hollowness_0", 
        "containment_1", 
        "flatness_2", 
        "rigidity_0", 
        "blockage_1"
    ], 
    "book_8": [
        "support_3", 
        "movability_2", 
        "weight_2", 
        "size_2", 
        "roughness_2", 
        "hollowness_0", 
        "containment_1", 
        "flatness_2", 
        "rigidity_0", 
        "blockage_3"
    ], 
    "book_9": [
        "support_3", 
        "movability_1", 
        "weight_1", 
        "size_2", 
        "roughness_2", 
        "hollowness_0", 
        "containment_1", 
        "flatness_2", 
        "rigidity_0", 
        "blockage_2"
    ], 
    "ball_6": [
        "support_1", 
        "movability_0", 
        "weight_0", 
        "size_1", 
        "roughness_3", 
        "hollowness_0", 
        "containment_2", 
        "flatness_1", 
        "rigidity_1", 
        "blockage_1"
    ], 
    "book_1": [
        "support_3", 
        "movability_1", 
        "weight_1", 
        "size_0", 
        "roughness_2", 
        "hollowness_0", 
        "containment_1", 
        "flatness_2", 
        "rigidity_1", 
        "blockage_2"
    ], 
    "book_2": [
        "support_3", 
        "movability_1", 
        "weight_1", 
        "size_0", 
        "roughness_0", 
        "hollowness_0", 
        "containment_1", 
        "flatness_2", 
        "rigidity_1", 
        "blockage_2"
    ], 
    "book_3": [
        "support_3", 
        "movability_3", 
        "weight_3", 
        "size_2", 
        "roughness_2", 
        "hollowness_0", 
        "containment_1", 
        "flatness_2", 
        "rigidity_1", 
        "blockage_0"
    ], 
    "book_4": [
        "support_3", 
        "movability_1", 
        "weight_1", 
        "size_2", 
        "roughness_2", 
        "hollowness_0", 
        "containment_1", 
        "flatness_2", 
        "rigidity_0", 
        "blockage_2"
    ], 
    "book_5": [
        "support_3", 
        "movability_2", 
        "weight_2", 
        "size_0", 
        "roughness_0", 
        "hollowness_0", 
        "containment_1", 
        "flatness_2", 
        "rigidity_3", 
        "blockage_3"
    ], 
    "book_6": [
        "support_3", 
        "movability_3", 
        "weight_3", 
        "size_2", 
        "roughness_0", 
        "hollowness_0", 
        "containment_1", 
        "flatness_2", 
        "rigidity_0", 
        "blockage_0"
    ], 
    "book_7": [
        "support_3", 
        "movability_1", 
        "weight_1", 
        "size_2", 
        "roughness_0", 
        "hollowness_0", 
        "containment_1", 
        "flatness_2", 
        "rigidity_0", 
        "blockage_2"
    ], 
    "sponge_9": [
        "support_3", 
        "movability_0", 
        "weight_0", 
        "size_2", 
        "roughness_1", 
        "hollowness_0", 
        "containment_1", 
        "flatness_0", 
        "rigidity_0", 
        "blockage_1"
    ], 
    "sponge_8": [
        "support_3", 
        "movability_0", 
        "weight_0", 
        "size_2", 
        "roughness_1", 
        "hollowness_0", 
        "containment_1", 
        "flatness_0", 
        "rigidity_0", 
        "blockage_1"
    ], 
    "sponge_7": [
        "support_3", 
        "movability_0", 
        "weight_0", 
        "size_2", 
        "roughness_2", 
        "hollowness_0", 
        "containment_1", 
        "flatness_0", 
        "rigidity_3", 
        "blockage_1"
    ], 
    "sponge_6": [
        "support_3", 
        "movability_0", 
        "weight_0", 
        "size_2", 
        "roughness_1", 
        "hollowness_0", 
        "containment_1", 
        "flatness_0", 
        "rigidity_3", 
        "blockage_1"
    ], 
    "sponge_5": [
        "support_3", 
        "movability_0", 
        "weight_0", 
        "size_0", 
        "roughness_1", 
        "hollowness_0", 
        "containment_1", 
        "flatness_2", 
        "rigidity_3", 
        "blockage_1"
    ], 
    "sponge_4": [
        "support_3", 
        "movability_0", 
        "weight_0", 
        "size_0", 
        "roughness_1", 
        "hollowness_0", 
        "containment_1", 
        "flatness_0", 
        "rigidity_0", 
        "blockage_1"
    ], 
    "sponge_3": [
        "support_3", 
        "movability_0", 
        "weight_0", 
        "size_0", 
        "roughness_1", 
        "hollowness_0", 
        "containment_1", 
        "flatness_0", 
        "rigidity_0", 
        "blockage_1"
    ], 
    "sponge_2": [
        "support_3", 
        "movability_0", 
        "weight_0", 
        "size_2", 
        "roughness_1", 
        "hollowness_0", 
        "containment_1", 
        "flatness_2", 
        "rigidity_0", 
        "blockage_1"
    ], 
    "sponge_1": [
        "support_3", 
        "movability_0", 
        "weight_0", 
        "size_2", 
        "roughness_1", 
        "hollowness_0", 
        "containment_1", 
        "flatness_2", 
        "rigidity_3", 
        "blockage_1"
    ], 
    "paper_box_10": [
        "support_0", 
        "movability_0", 
        "weight_0", 
        "size_0", 
        "roughness_0", 
        "hollowness_0", 
        "containment_1", 
        "flatness_0", 
        "rigidity_1", 
        "blockage_1"
    ], 
    "tray_10": [
        "support_3", 
        "movability_2", 
        "weight_2", 
        "size_2", 
        "roughness_2", 
        "hollowness_0", 
        "containment_1", 
        "flatness_2", 
        "rigidity_1", 
        "blockage_3"
    ], 
    "metal_box_5": [
        "support_0", 
        "movability_2", 
        "weight_2", 
        "size_0", 
        "roughness_0", 
        "hollowness_0", 
        "containment_1", 
        "flatness_0", 
        "rigidity_1", 
        "blockage_3"
    ], 
    "metal_box_4": [
        "support_0", 
        "movability_0", 
        "weight_0", 
        "size_0", 
        "roughness_0", 
        "hollowness_0", 
        "containment_1", 
        "flatness_0", 
        "rigidity_1", 
        "blockage_1"
    ], 
    "metal_box_7": [
        "support_1", 
        "movability_0", 
        "weight_0", 
        "size_3", 
        "roughness_0", 
        "hollowness_0", 
        "containment_2", 
        "flatness_3", 
        "rigidity_2", 
        "blockage_1"
    ], 
    "metal_box_6": [
        "support_3", 
        "movability_2", 
        "weight_2", 
        "size_0", 
        "roughness_2", 
        "hollowness_0", 
        "containment_1", 
        "flatness_0", 
        "rigidity_0", 
        "blockage_3"
    ], 
    "metal_box_1": [
        "support_0", 
        "movability_0", 
        "weight_0", 
        "size_1", 
        "roughness_0", 
        "hollowness_0", 
        "containment_2", 
        "flatness_3", 
        "rigidity_1", 
        "blockage_1"
    ], 
    "metal_box_3": [
        "support_0", 
        "movability_2", 
        "weight_2", 
        "size_0", 
        "roughness_0", 
        "hollowness_0", 
        "containment_1", 
        "flatness_0", 
        "rigidity_1", 
        "blockage_3"
    ], 
    "metal_box_2": [
        "support_0", 
        "movability_0", 
        "weight_0", 
        "size_1", 
        "roughness_2", 
        "hollowness_0", 
        "containment_2", 
        "flatness_3", 
        "rigidity_1", 
        "blockage_1"
    ], 
    "metal_box_9": [
        "support_0", 
        "movability_2", 
        "weight_2", 
        "size_2", 
        "roughness_2", 
        "hollowness_0", 
        "containment_1", 
        "flatness_0", 
        "rigidity_1", 
        "blockage_3"
    ], 
    "metal_box_8": [
        "support_0", 
        "movability_0", 
        "weight_0", 
        "size_0", 
        "roughness_2", 
        "hollowness_0", 
        "containment_1", 
        "flatness_0", 
        "rigidity_1", 
        "blockage_1"
    ], 
    "cup_10": [
        "support_1", 
        "movability_0", 
        "weight_0", 
        "size_1", 
        "roughness_2", 
        "hollowness_1", 
        "containment_0", 
        "flatness_1", 
        "rigidity_2", 
        "blockage_1"
    ], 
    "ball_10": [
        "support_1", 
        "movability_0", 
        "weight_0", 
        "size_1", 
        "roughness_3", 
        "hollowness_0", 
        "containment_2", 
        "flatness_1", 
        "rigidity_0", 
        "blockage_1"
    ], 
    "plate_8": [
        "support_0", 
        "movability_1", 
        "weight_1", 
        "size_0", 
        "roughness_2", 
        "hollowness_1", 
        "containment_3", 
        "flatness_3", 
        "rigidity_1", 
        "blockage_2"
    ], 
    "plate_9": [
        "support_2", 
        "movability_2", 
        "weight_2", 
        "size_0", 
        "roughness_2", 
        "hollowness_2", 
        "containment_3", 
        "flatness_1", 
        "rigidity_1", 
        "blockage_3"
    ], 
    "plate_6": [
        "support_2", 
        "movability_1", 
        "weight_1", 
        "size_0", 
        "roughness_2", 
        "hollowness_3", 
        "containment_3", 
        "flatness_1", 
        "rigidity_1", 
        "blockage_2"
    ], 
    "plate_7": [
        "support_2", 
        "movability_0", 
        "weight_0", 
        "size_0", 
        "roughness_1", 
        "hollowness_3", 
        "containment_3", 
        "flatness_1", 
        "rigidity_3", 
        "blockage_1"
    ], 
    "plate_4": [
        "support_2", 
        "movability_2", 
        "weight_2", 
        "size_0", 
        "roughness_0", 
        "hollowness_1", 
        "containment_3", 
        "flatness_1", 
        "rigidity_0", 
        "blockage_3"
    ], 
    "sponge_10": [
        "support_3", 
        "movability_0", 
        "weight_0", 
        "size_0", 
        "roughness_2", 
        "hollowness_0", 
        "containment_1", 
        "flatness_2", 
        "rigidity_3", 
        "blockage_1"
    ], 
    "plate_2": [
        "support_2", 
        "movability_2", 
        "weight_2", 
        "size_0", 
        "roughness_0", 
        "hollowness_3", 
        "containment_3", 
        "flatness_1", 
        "rigidity_0", 
        "blockage_3"
    ], 
    "plate_3": [
        "support_2", 
        "movability_1", 
        "weight_1", 
        "size_0", 
        "roughness_0", 
        "hollowness_3", 
        "containment_3", 
        "flatness_1", 
        "rigidity_0", 
        "blockage_2"
    ], 
    "plate_1": [
        "support_2", 
        "movability_2", 
        "weight_2", 
        "size_0", 
        "roughness_0", 
        "hollowness_1", 
        "containment_3", 
        "flatness_1", 
        "rigidity_0", 
        "blockage_3"
    ], 
    "tray_3": [
        "support_3", 
        "movability_1", 
        "weight_1", 
        "size_0", 
        "roughness_2", 
        "hollowness_0", 
        "containment_1", 
        "flatness_2", 
        "rigidity_1", 
        "blockage_2"
    ], 
    "tray_2": [
        "support_3", 
        "movability_1", 
        "weight_1", 
        "size_0", 
        "roughness_2", 
        "hollowness_0", 
        "containment_1", 
        "flatness_2", 
        "rigidity_0", 
        "blockage_2"
    ], 
    "tray_1": [
        "support_3", 
        "movability_1", 
        "weight_1", 
        "size_0", 
        "roughness_2", 
        "hollowness_0", 
        "containment_1", 
        "flatness_2", 
        "rigidity_0", 
        "blockage_2"
    ], 
    "tray_7": [
        "support_3", 
        "movability_0", 
        "weight_0", 
        "size_2", 
        "roughness_0", 
        "hollowness_0", 
        "containment_1", 
        "flatness_2", 
        "rigidity_0", 
        "blockage_1"
    ], 
    "tray_6": [
        "support_3", 
        "movability_2", 
        "weight_2", 
        "size_2", 
        "roughness_1", 
        "hollowness_0", 
        "containment_1", 
        "flatness_2", 
        "rigidity_0", 
        "blockage_3"
    ], 
    "tray_5": [
        "support_3", 
        "movability_2", 
        "weight_2", 
        "size_2", 
        "roughness_0", 
        "hollowness_0", 
        "containment_1", 
        "flatness_2", 
        "rigidity_0", 
        "blockage_3"
    ], 
    "tray_4": [
        "support_3", 
        "movability_2", 
        "weight_2", 
        "size_2", 
        "roughness_0", 
        "hollowness_0", 
        "containment_1", 
        "flatness_2", 
        "rigidity_0", 
        "blockage_3"
    ], 
    "tray_9": [
        "support_3", 
        "movability_2", 
        "weight_2", 
        "size_2", 
        "roughness_0", 
        "hollowness_0", 
        "containment_1", 
        "flatness_2", 
        "rigidity_0", 
        "blockage_3"
    ], 
    "tray_8": [
        "support_3", 
        "movability_0", 
        "weight_0", 
        "size_0", 
        "roughness_1", 
        "hollowness_0", 
        "containment_1", 
        "flatness_2", 
        "rigidity_0", 
        "blockage_1"
    ], 
    "bowl_3": [
        "support_2", 
        "movability_2", 
        "weight_2", 
        "size_0", 
        "roughness_0", 
        "hollowness_1", 
        "containment_3", 
        "flatness_1", 
        "rigidity_1", 
        "blockage_3"
    ], 
    "bowl_2": [
        "support_2", 
        "movability_2", 
        "weight_2", 
        "size_0", 
        "roughness_0", 
        "hollowness_2", 
        "containment_3", 
        "flatness_1", 
        "rigidity_2", 
        "blockage_3"
    ], 
    "bowl_1": [
        "support_2", 
        "movability_2", 
        "weight_2", 
        "size_2", 
        "roughness_0", 
        "hollowness_1", 
        "containment_3", 
        "flatness_1", 
        "rigidity_1", 
        "blockage_3"
    ], 
    "bowl_7": [
        "support_1", 
        "movability_0", 
        "weight_0", 
        "size_1", 
        "roughness_2", 
        "hollowness_2", 
        "containment_0", 
        "flatness_1", 
        "rigidity_2", 
        "blockage_1"
    ], 
    "bowl_6": [
        "support_2", 
        "movability_0", 
        "weight_0", 
        "size_0", 
        "roughness_2", 
        "hollowness_1", 
        "containment_3", 
        "flatness_1", 
        "rigidity_1", 
        "blockage_1"
    ], 
    "bowl_5": [
        "support_2", 
        "movability_0", 
        "weight_0", 
        "size_0", 
        "roughness_2", 
        "hollowness_3", 
        "containment_3", 
        "flatness_1", 
        "rigidity_1", 
        "blockage_1"
    ], 
    "bowl_4": [
        "support_2", 
        "movability_2", 
        "weight_2", 
        "size_0", 
        "roughness_0", 
        "hollowness_2", 
        "containment_3", 
        "flatness_1", 
        "rigidity_2", 
        "blockage_3"
    ], 
    "bowl_9": [
        "support_2", 
        "movability_1", 
        "weight_1", 
        "size_0", 
        "roughness_0", 
        "hollowness_2", 
        "containment_3", 
        "flatness_1", 
        "rigidity_2", 
        "blockage_2"
    ], 
    "bowl_8": [
        "support_2", 
        "movability_2", 
        "weight_2", 
        "size_0", 
        "roughness_0", 
        "hollowness_2", 
        "containment_3", 
        "flatness_1", 
        "rigidity_1", 
        "blockage_3"
    ], 
    "plastic_box_8": [
        "support_0", 
        "movability_0", 
        "weight_0", 
        "size_2", 
        "roughness_2", 
        "hollowness_0", 
        "containment_1", 
        "flatness_0", 
        "rigidity_1", 
        "blockage_1"
    ], 
    "plastic_box_9": [
        "support_0", 
        "movability_0", 
        "weight_0", 
        "size_0", 
        "roughness_2", 
        "hollowness_0", 
        "containment_1", 
        "flatness_0", 
        "rigidity_1", 
        "blockage_1"
    ], 
    "to_go_cup_10": [
        "support_1", 
        "movability_0", 
        "weight_0", 
        "size_1", 
        "roughness_0", 
        "hollowness_1", 
        "containment_0", 
        "flatness_1", 
        "rigidity_2", 
        "blockage_1"
    ], 
    "plastic_box_2": [
        "support_0", 
        "movability_0", 
        "weight_0", 
        "size_0", 
        "roughness_2", 
        "hollowness_0", 
        "containment_1", 
        "flatness_0", 
        "rigidity_1", 
        "blockage_1"
    ], 
    "plastic_box_3": [
        "support_1", 
        "movability_0", 
        "weight_0", 
        "size_3", 
        "roughness_0", 
        "hollowness_0", 
        "containment_2", 
        "flatness_3", 
        "rigidity_2", 
        "blockage_1"
    ], 
    "plastic_box_1": [
        "support_0", 
        "movability_0", 
        "weight_0", 
        "size_0", 
        "roughness_2", 
        "hollowness_0", 
        "containment_1", 
        "flatness_0", 
        "rigidity_2", 
        "blockage_1"
    ], 
    "plastic_box_6": [
        "support_0", 
        "movability_0", 
        "weight_0", 
        "size_0", 
        "roughness_2", 
        "hollowness_0", 
        "containment_1", 
        "flatness_0", 
        "rigidity_1", 
        "blockage_1"
    ], 
    "plastic_box_7": [
        "support_1", 
        "movability_0", 
        "weight_0", 
        "size_1", 
        "roughness_0", 
        "hollowness_0", 
        "containment_2", 
        "flatness_3", 
        "rigidity_2", 
        "blockage_1"
    ], 
    "plastic_box_4": [
        "support_1", 
        "movability_0", 
        "weight_0", 
        "size_1", 
        "roughness_0", 
        "hollowness_0", 
        "containment_2", 
        "flatness_3", 
        "rigidity_1", 
        "blockage_1"
    ], 
    "plastic_box_5": [
        "support_0", 
        "movability_0", 
        "weight_0", 
        "size_0", 
        "roughness_2", 
        "hollowness_0", 
        "containment_1", 
        "flatness_2", 
        "rigidity_1", 
        "blockage_1"
    ], 
    "book_10": [
        "support_3", 
        "movability_1", 
        "weight_1", 
        "size_2", 
        "roughness_2", 
        "hollowness_0", 
        "containment_1", 
        "flatness_2", 
        "rigidity_1", 
        "blockage_2"
    ], 
    "cup_3": [
        "support_1", 
        "movability_0", 
        "weight_0", 
        "size_1", 
        "roughness_2", 
        "hollowness_2", 
        "containment_0", 
        "flatness_1", 
        "rigidity_2", 
        "blockage_1"
    ], 
    "bowl_10": [
        "support_2", 
        "movability_1", 
        "weight_1", 
        "size_0", 
        "roughness_2", 
        "hollowness_3", 
        "containment_3", 
        "flatness_1", 
        "rigidity_2", 
        "blockage_2"
    ], 
    "plate_5": [
        "support_2", 
        "movability_1", 
        "weight_1", 
        "size_0", 
        "roughness_0", 
        "hollowness_1", 
        "containment_3", 
        "flatness_1", 
        "rigidity_0", 
        "blockage_2"
    ], 
    "plate_10": [
        "support_2", 
        "movability_2", 
        "weight_2", 
        "size_0", 
        "roughness_0", 
        "hollowness_1", 
        "containment_3", 
        "flatness_1", 
        "rigidity_0", 
        "blockage_3"
    ], 
    "ball_1": [
        "support_1", 
        "movability_0", 
        "weight_0", 
        "size_1", 
        "roughness_3", 
        "hollowness_0", 
        "containment_2", 
        "flatness_1", 
        "rigidity_1", 
        "blockage_1"
    ]
}