{
    "plastic_box_": {
        "movability_0": 1.0, 
        "weight_0": 1.0, 
        "blockage_1": 1.0, 
        "size_2": 0.1, 
        "roughness_0": 0.3, 
        "hollowness_0": 1.0, 
        "size_1": 0.2, 
        "support_1": 0.3, 
        "support_0": 0.6, 
        "support_3": 0.1, 
        "flatness_3": 0.3, 
        "rigidity_0": 0.1, 
        "rigidity_1": 0.6, 
        "rigidity_2": 0.3, 
        "flatness_0": 0.6, 
        "containment_2": 0.3, 
        "size_3": 0.1, 
        "size_0": 0.6, 
        "containment_1": 0.7, 
        "roughness_2": 0.7, 
        "flatness_2": 0.1
    }, 
    "bowl_": {
        "blockage_3": 0.5, 
        "blockage_2": 0.2, 
        "blockage_1": 0.3, 
        "rigidity_2": 0.5, 
        "hollowness_1": 0.3, 
        "size_0": 0.8, 
        "size_1": 0.1, 
        "size_2": 0.1, 
        "movability_1": 0.2, 
        "movability_0": 0.3, 
        "movability_2": 0.5, 
        "weight_1": 0.2, 
        "weight_0": 0.3, 
        "hollowness_3": 0.2, 
        "hollowness_2": 0.5, 
        "containment_0": 0.1, 
        "weight_2": 0.5, 
        "support_1": 0.1, 
        "support_2": 0.9, 
        "rigidity_1": 0.5, 
        "flatness_1": 1.0, 
        "roughness_0": 0.6, 
        "roughness_2": 0.4, 
        "containment_3": 0.9
    }, 
    "to_go_cup_": {
        "movability_0": 1.0, 
        "hollowness_1": 0.4, 
        "weight_0": 1.0, 
        "blockage_1": 1.0, 
        "hollowness_2": 0.5, 
        "roughness_0": 0.4, 
        "hollowness_0": 0.1, 
        "support_1": 1.0, 
        "containment_2": 0.1, 
        "flatness_1": 1.0, 
        "rigidity_2": 1.0, 
        "containment_0": 0.9, 
        "size_1": 0.6, 
        "roughness_2": 0.6, 
        "size_3": 0.4
    }, 
    "ball_": {
        "movability_0": 1.0, 
        "weight_0": 1.0, 
        "blockage_1": 1.0, 
        "support_1": 1.0, 
        "rigidity_0": 0.3, 
        "rigidity_1": 0.6, 
        "flatness_1": 1.0, 
        "rigidity_2": 0.1, 
        "roughness_3": 1.0, 
        "size_1": 1.0, 
        "containment_2": 1.0, 
        "hollowness_0": 1.0
    }, 
    "metal_box_": {
        "blockage_3": 0.4, 
        "blockage_1": 0.6, 
        "size_0": 0.6, 
        "size_1": 0.2, 
        "size_2": 0.1, 
        "size_3": 0.1, 
        "movability_0": 0.6, 
        "movability_2": 0.4, 
        "weight_0": 0.6, 
        "weight_2": 0.4, 
        "roughness_2": 0.5, 
        "hollowness_0": 1.0, 
        "support_1": 0.1, 
        "support_0": 0.8, 
        "support_3": 0.1, 
        "flatness_3": 0.3, 
        "rigidity_1": 0.8, 
        "rigidity_2": 0.1, 
        "flatness_0": 0.7, 
        "rigidity_0": 0.1, 
        "roughness_0": 0.5, 
        "containment_1": 0.7, 
        "containment_2": 0.3
    }, 
    "tray_": {
        "movability_1": 0.3, 
        "movability_0": 0.2, 
        "movability_2": 0.5, 
        "weight_1": 0.3, 
        "blockage_2": 0.3, 
        "blockage_1": 0.2, 
        "weight_0": 0.2, 
        "roughness_0": 0.4, 
        "weight_2": 0.5, 
        "roughness_1": 0.2, 
        "flatness_2": 1.0, 
        "support_3": 1.0, 
        "rigidity_0": 0.8, 
        "rigidity_1": 0.2, 
        "blockage_3": 0.5, 
        "size_2": 0.6, 
        "size_0": 0.4, 
        "containment_1": 1.0, 
        "roughness_2": 0.4, 
        "hollowness_0": 1.0
    }, 
    "plate_": {
        "blockage_3": 0.5, 
        "blockage_2": 0.4, 
        "blockage_1": 0.1, 
        "hollowness_1": 0.5, 
        "size_0": 1.0, 
        "movability_1": 0.4, 
        "movability_0": 0.1, 
        "movability_2": 0.5, 
        "weight_1": 0.4, 
        "weight_0": 0.1, 
        "hollowness_3": 0.4, 
        "weight_2": 0.5, 
        "hollowness_2": 0.1, 
        "support_0": 0.1, 
        "support_2": 0.9, 
        "flatness_3": 0.1, 
        "rigidity_1": 0.3, 
        "flatness_1": 0.9, 
        "rigidity_3": 0.1, 
        "rigidity_0": 0.6, 
        "roughness_0": 0.6, 
        "roughness_1": 0.1, 
        "roughness_2": 0.3, 
        "containment_3": 1.0
    }, 
    "cup_": {
        "movability_0": 0.3, 
        "movability_2": 0.7, 
        "hollowness_1": 0.4, 
        "weight_0": 0.3, 
        "blockage_1": 0.3, 
        "weight_2": 0.7, 
        "roughness_0": 0.5, 
        "hollowness_2": 0.5, 
        "hollowness_0": 0.1, 
        "support_1": 1.0, 
        "containment_2": 0.1, 
        "flatness_1": 1.0, 
        "rigidity_2": 1.0, 
        "blockage_3": 0.7, 
        "containment_0": 0.9, 
        "size_1": 0.7, 
        "roughness_2": 0.5, 
        "size_3": 0.3
    }, 
    "paper_box_": {
        "blockage_2": 0.1, 
        "blockage_1": 0.9, 
        "flatness_3": 0.1, 
        "rigidity_2": 0.2, 
        "size_0": 0.2, 
        "containment_2": 0.3, 
        "size_2": 0.6, 
        "size_3": 0.2, 
        "movability_1": 0.1, 
        "movability_0": 0.9, 
        "weight_1": 0.1, 
        "weight_0": 0.9, 
        "hollowness_0": 1.0, 
        "support_1": 0.2, 
        "support_0": 0.2, 
        "support_3": 0.6, 
        "rigidity_0": 0.2, 
        "flatness_2": 0.3, 
        "flatness_1": 0.2, 
        "flatness_0": 0.4, 
        "rigidity_1": 0.6, 
        "roughness_0": 0.5, 
        "containment_1": 0.7, 
        "roughness_2": 0.4, 
        "roughness_3": 0.1
    }, 
    "sponge_": {
        "movability_0": 1.0, 
        "weight_0": 1.0, 
        "blockage_1": 1.0, 
        "size_2": 0.6, 
        "flatness_0": 0.6, 
        "roughness_1": 0.8, 
        "support_3": 1.0, 
        "rigidity_0": 0.5, 
        "flatness_2": 0.4, 
        "rigidity_3": 0.5, 
        "size_0": 0.4, 
        "containment_1": 1.0, 
        "roughness_2": 0.2, 
        "hollowness_0": 1.0
    }, 
    "book_": {
        "movability_1": 0.6, 
        "movability_3": 0.2, 
        "movability_2": 0.2, 
        "blockage_3": 0.2, 
        "hollowness_0": 1.0, 
        "weight_3": 0.2, 
        "weight_2": 0.2, 
        "roughness_2": 0.6, 
        "blockage_0": 0.2, 
        "roughness_0": 0.4, 
        "support_3": 1.0, 
        "rigidity_0": 0.5, 
        "flatness_2": 1.0, 
        "rigidity_1": 0.4, 
        "rigidity_3": 0.1, 
        "weight_1": 0.6, 
        "size_0": 0.3, 
        "containment_1": 1.0, 
        "size_2": 0.7, 
        "blockage_2": 0.6
    }
}